vip_bno	set_kpl	set_min	set_lask	set_alku	set_eur_min	vip_kpl	vip_min	vip_lask	debit
358700444100	25	426.70	139.65	6.93	0.00	23	426.2	2547.09	2407.44
358700444108	18	42.70	174.44	12.02	0.00	18	103.5	1068.27	893.83
358700444106	30	84.20	290.74	12.02	0.00	30	87.1	898.51	607.77
358700444111	7	19.30	84.80	15.02	0.00	7	19.6	253.29	168.49
358700444107	3	17.00	29.07	12.02	0.00	3	17.1	176.30	147.23
35870095953	116	462.90	942.07	0.00	2.52	115	474.3	1019.76	77.69
35870095965	28	119.60	244.43	0.00	2.53	28	122.2	262.74	18.31
35870095479	31	81.30	165.83	0.00	2.53	31	83.8	180.06	14.23
35870093100	25	69.00	139.31	0.00	2.50	26	70.3	151.04	11.73
358700570015	26	61.80	130.43	0.00	2.62	26	63.2	135.90	5.47
358700570017	6	52.90	110.24	0.00	2.58	6	52.9	113.81	3.57
358700570039	2	13.20	27.46	0.00	0.00	2	13.2	28.38	0.92
35870095954	3	1.00	2.42	0.00	0.00	3	1.5	3.29	0.87
35870094977	1	7.40	15.08	0.00	0.00	1	7.4	15.87	0.79
358600555817	7	4.70	10.50	1.86	0.00	7	5.9	11.09	0.59
35870095459	3	2.10	4.85	0.00	0.00	3	2.5	5.38	0.53
35870095904	1	0.80	1.62	0.00	0.00	1	0.9	1.90	0.28
358700570025	1	0.90	2.02	0.00	0.00	1	1.1	2.26	0.24
35870094452	3	4.00	8.88	0.00	0.00	3	4.2	9.00	0.12
35870095466	1	0.70	1.62	0.00	0.00	1	0.8	1.72	0.10
358600555816	1	0.50	1.21	1.50	0.00	1	0.6	1.16	-0.05
35870095470	1	0.10	0.40	0.00	0.00	1	0.2	0.32	-0.08
358700466111	2	1.10	2.42	0.00	0.00	2	1.1	2.33	-0.09
358600555815	12	23.80	50.48	5.22	0.00	12	25.6	47.98	-2.50
358700570178	1	0.70	4.58	0.00	0.00	1	0.6	1.33	-3.25
358600555814	11	22.30	47.24	5.33	0.00	11	23.1	43.30	-3.94
358700570172	3	3.60	14.07	0.00	0.00	3	3.9	8.39	-5.68
358600555837	4	8.10	17.36	0.00	0.00	4	8.0	6.79	-10.57
358600555813	27	48.70	104.18	4.78	0.00	26	49.8	93.41	-10.77
358600555811	74	433.50	900.47	15.09	0.00	74	439.7	824.35	-76.12
